%!PS-Adobe-3.0 EPSF-3.0
%%Creator: cairo 1.16.0 (https://cairographics.org)
%%CreationDate: Tue May 14 17:10:58 2019
%%Pages: 1
%%DocumentData: Clean7Bit
%%LanguageLevel: 2
%%BoundingBox: 0 0 129 161
%%EndComments
%%BeginProlog
50 dict begin
/q { gsave } bind def
/Q { grestore } bind def
/cm { 6 array astore concat } bind def
/w { setlinewidth } bind def
/J { setlinecap } bind def
/j { setlinejoin } bind def
/M { setmiterlimit } bind def
/d { setdash } bind def
/m { moveto } bind def
/l { lineto } bind def
/c { curveto } bind def
/h { closepath } bind def
/re { exch dup neg 3 1 roll 5 3 roll moveto 0 rlineto
      0 exch rlineto 0 rlineto closepath } bind def
/S { stroke } bind def
/f { fill } bind def
/f* { eofill } bind def
/n { newpath } bind def
/W { clip } bind def
/W* { eoclip } bind def
/BT { } bind def
/ET { } bind def
/BDC { mark 3 1 roll /BDC pdfmark } bind def
/EMC { mark /EMC pdfmark } bind def
/cairo_store_point { /cairo_point_y exch def /cairo_point_x exch def } def
/Tj { show currentpoint cairo_store_point } bind def
/TJ {
  {
    dup
    type /stringtype eq
    { show } { -0.001 mul 0 cairo_font_matrix dtransform rmoveto } ifelse
  } forall
  currentpoint cairo_store_point
} bind def
/cairo_selectfont { cairo_font_matrix aload pop pop pop 0 0 6 array astore
    cairo_font exch selectfont cairo_point_x cairo_point_y moveto } bind def
/Tf { pop /cairo_font exch def /cairo_font_matrix where
      { pop cairo_selectfont } if } bind def
/Td { matrix translate cairo_font_matrix matrix concatmatrix dup
      /cairo_font_matrix exch def dup 4 get exch 5 get cairo_store_point
      /cairo_font where { pop cairo_selectfont } if } bind def
/Tm { 2 copy 8 2 roll 6 array astore /cairo_font_matrix exch def
      cairo_store_point /cairo_font where { pop cairo_selectfont } if } bind def
/g { setgray } bind def
/rg { setrgbcolor } bind def
/d1 { setcachedevice } bind def
/cairo_data_source {
  CairoDataIndex CairoData length lt
    { CairoData CairoDataIndex get /CairoDataIndex CairoDataIndex 1 add def }
    { () } ifelse
} def
/cairo_flush_ascii85_file { cairo_ascii85_file status { cairo_ascii85_file flushfile } if } def
/cairo_image { image cairo_flush_ascii85_file } def
/cairo_imagemask { imagemask cairo_flush_ascii85_file } def
%%EndProlog
%%BeginSetup
%%EndSetup
%%Page: 1 1
%%BeginPageSetup
%%PageBoundingBox: 0 0 129 161
%%EndPageSetup
q 0 0 129 161 rectclip
1 0 0 -1 0 161 cm q
0 g
0.4 w
0 J
1 j
[] 0.0 d
10 M 0.199 16.398 128 128 re S
112.199 32.398 m 96.199 32.398 l S
80.199 32.398 m 64.199 32.398 l S
48.199 32.398 m 32.199 32.398 l S
16.199 32.398 m 16.199 48.398 l S
0.745 g
96.199 32.398 m 80.199 32.398 l S
64.199 32.398 m 48.199 32.398 l S
32.199 32.398 m 16.199 32.398 l S
0 g
112.199 48.398 m 96.199 48.398 l S
80.199 48.398 m 64.199 48.398 l S
48.199 48.398 m 32.199 48.398 l S
0.745 g
96.199 48.398 m 80.199 48.398 l S
64.199 48.398 m 48.199 48.398 l S
32.199 48.398 m 16.199 48.398 l S
0 g
112.199 64.398 m 96.199 64.398 l S
80.199 64.398 m 64.199 64.398 l S
48.199 64.398 m 32.199 64.398 l S
0.745 g
96.199 64.398 m 80.199 64.398 l S
64.199 64.398 m 48.199 64.398 l S
32.199 64.398 m 16.199 64.398 l S
0 g
112.199 80.398 m 96.199 80.398 l S
80.199 80.398 m 64.199 80.398 l S
48.199 80.398 m 32.199 80.398 l S
0.745 g
96.199 80.398 m 80.199 80.398 l S
64.199 80.398 m 48.199 80.398 l S
32.199 80.398 m 16.199 80.398 l S
0 g
112.199 96.398 m 96.199 96.398 l S
80.199 96.398 m 64.199 96.398 l S
48.199 96.398 m 32.199 96.398 l S
0.745 g
96.199 96.398 m 80.199 96.398 l S
64.199 96.398 m 48.199 96.398 l S
32.199 96.398 m 16.199 96.398 l S
0 g
112.199 112.398 m 96.199 112.398 l S
80.199 112.398 m 64.199 112.398 l S
48.199 112.398 m 32.199 112.398 l S
0.745 g
96.199 112.398 m 80.199 112.398 l S
64.199 112.398 m 48.199 112.398 l S
32.199 112.398 m 16.199 112.398 l S
0 g
112.199 128.398 m 96.199 128.398 l S
80.199 128.398 m 64.199 128.398 l S
48.199 128.398 m 32.199 128.398 l S
0.745 g
96.199 128.398 m 80.199 128.398 l S
64.199 128.398 m 48.199 128.398 l S
32.199 128.398 m 16.199 128.398 l S
0 g
112.199 48.398 m 112.199 64.398 l S
16.199 64.398 m 16.199 80.398 l S
112.199 80.398 m 112.199 96.398 l S
16.199 96.398 m 16.199 112.398 l S
112.199 112.398 m 112.199 128.398 l S
18 32.398 m 18 30 14.398 30 14.398 32.398 c 14.398 34.801 18 34.801 18 
32.398 c h
18 32.398 m f*
34 32.398 m 34 30 30.398 30 30.398 32.398 c 30.398 34.801 34 34.801 34 
32.398 c h
34 32.398 m f*
50 32.398 m 50 30 46.398 30 46.398 32.398 c 46.398 34.801 50 34.801 50 
32.398 c h
50 32.398 m f*
1 0 0 rg
66 32.398 m 66 30 62.398 30 62.398 32.398 c 62.398 34.801 66 34.801 66 
32.398 c h
66 32.398 m f*
0 0 1 rg
82 32.398 m 82 30 78.398 30 78.398 32.398 c 78.398 34.801 82 34.801 82 
32.398 c h
82 32.398 m f*
0 g
98 32.398 m 98 30 94.398 30 94.398 32.398 c 94.398 34.801 98 34.801 98 
32.398 c h
98 32.398 m f*
114 32.398 m 114 30 110.398 30 110.398 32.398 c 110.398 34.801 114 34.801
 114 32.398 c h
114 32.398 m f*
114 48.398 m 114 46 110.398 46 110.398 48.398 c 110.398 50.801 114 50.801
 114 48.398 c h
114 48.398 m f*
98 48.398 m 98 46 94.398 46 94.398 48.398 c 94.398 50.801 98 50.801 98 
48.398 c h
98 48.398 m f*
0 0 1 rg
82 48.398 m 82 46 78.398 46 78.398 48.398 c 78.398 50.801 82 50.801 82 
48.398 c h
82 48.398 m f*
1 0 0 rg
66 48.398 m 66 46 62.398 46 62.398 48.398 c 62.398 50.801 66 50.801 66 
48.398 c h
66 48.398 m f*
0 g
50 48.398 m 50 46 46.398 46 46.398 48.398 c 46.398 50.801 50 50.801 50 
48.398 c h
50 48.398 m f*
34 48.398 m 34 46 30.398 46 30.398 48.398 c 30.398 50.801 34 50.801 34 
48.398 c h
34 48.398 m f*
18 48.398 m 18 46 14.398 46 14.398 48.398 c 14.398 50.801 18 50.801 18 
48.398 c h
18 48.398 m f*
18 64.398 m 18 62 14.398 62 14.398 64.398 c 14.398 66.801 18 66.801 18 
64.398 c h
18 64.398 m f*
34 64.398 m 34 62 30.398 62 30.398 64.398 c 30.398 66.801 34 66.801 34 
64.398 c h
34 64.398 m f*
50 64.398 m 50 62 46.398 62 46.398 64.398 c 46.398 66.801 50 66.801 50 
64.398 c h
50 64.398 m f*
1 0 0 rg
66 64.398 m 66 62 62.398 62 62.398 64.398 c 62.398 66.801 66 66.801 66 
64.398 c h
66 64.398 m f*
0 0 1 rg
82 64.398 m 82 62 78.398 62 78.398 64.398 c 78.398 66.801 82 66.801 82 
64.398 c h
82 64.398 m f*
0 g
98 64.398 m 98 62 94.398 62 94.398 64.398 c 94.398 66.801 98 66.801 98 
64.398 c h
98 64.398 m f*
114 64.398 m 114 62 110.398 62 110.398 64.398 c 110.398 66.801 114 66.801
 114 64.398 c h
114 64.398 m f*
114 80.398 m 114 78 110.398 78 110.398 80.398 c 110.398 82.801 114 82.801
 114 80.398 c h
114 80.398 m f*
98 80.398 m 98 78 94.398 78 94.398 80.398 c 94.398 82.801 98 82.801 98 
80.398 c h
98 80.398 m f*
1 0 0 rg
82 80.398 m 82 78 78.398 78 78.398 80.398 c 78.398 82.801 82 82.801 82 
80.398 c h
82 80.398 m f*
0 0 1 rg
66 80.398 m 66 78 62.398 78 62.398 80.398 c 62.398 82.801 66 82.801 66 
80.398 c h
66 80.398 m f*
0 g
50 80.398 m 50 78 46.398 78 46.398 80.398 c 46.398 82.801 50 82.801 50 
80.398 c h
50 80.398 m f*
34 80.398 m 34 78 30.398 78 30.398 80.398 c 30.398 82.801 34 82.801 34 
80.398 c h
34 80.398 m f*
18 80.398 m 18 78 14.398 78 14.398 80.398 c 14.398 82.801 18 82.801 18 
80.398 c h
18 80.398 m f*
18 96.398 m 18 94 14.398 94 14.398 96.398 c 14.398 98.801 18 98.801 18 
96.398 c h
18 96.398 m f*
34 96.398 m 34 94 30.398 94 30.398 96.398 c 30.398 98.801 34 98.801 34 
96.398 c h
34 96.398 m f*
50 96.398 m 50 94 46.398 94 46.398 96.398 c 46.398 98.801 50 98.801 50 
96.398 c h
50 96.398 m f*
1 0 0 rg
82 96.398 m 82 94 78.398 94 78.398 96.398 c 78.398 98.801 82 98.801 82 
96.398 c h
82 96.398 m f*
0 0 1 rg
66 96.398 m 66 94 62.398 94 62.398 96.398 c 62.398 98.801 66 98.801 66 
96.398 c h
66 96.398 m f*
0 g
98 96.398 m 98 94 94.398 94 94.398 96.398 c 94.398 98.801 98 98.801 98 
96.398 c h
98 96.398 m f*
114 96.398 m 114 94 110.398 94 110.398 96.398 c 110.398 98.801 114 98.801
 114 96.398 c h
114 96.398 m f*
114 112.398 m 114 110 110.398 110 110.398 112.398 c 110.398 114.801 114
 114.801 114 112.398 c h
114 112.398 m f*
98 112.398 m 98 110 94.398 110 94.398 112.398 c 94.398 114.801 98 114.801
 98 112.398 c h
98 112.398 m f*
114 128.398 m 114 126 110.398 126 110.398 128.398 c 110.398 130.801 114
 130.801 114 128.398 c h
114 128.398 m f*
98 128.398 m 98 126 94.398 126 94.398 128.398 c 94.398 130.801 98 130.801
 98 128.398 c h
98 128.398 m f*
1 0 0 rg
82 128.398 m 82 126 78.398 126 78.398 128.398 c 78.398 130.801 82 130.801
 82 128.398 c h
82 128.398 m f*
0 0 1 rg
82 112.398 m 82 110 78.398 110 78.398 112.398 c 78.398 114.801 82 114.801
 82 112.398 c h
82 112.398 m f*
1 0 0 rg
66 112.398 m 66 110 62.398 110 62.398 112.398 c 62.398 114.801 66 114.801
 66 112.398 c h
66 112.398 m f*
0 g
50 112.398 m 50 110 46.398 110 46.398 112.398 c 46.398 114.801 50 114.801
 50 112.398 c h
50 112.398 m f*
34 112.398 m 34 110 30.398 110 30.398 112.398 c 30.398 114.801 34 114.801
 34 112.398 c h
34 112.398 m f*
18 112.398 m 18 110 14.398 110 14.398 112.398 c 14.398 114.801 18 114.801
 18 112.398 c h
18 112.398 m f*
18 128.398 m 18 126 14.398 126 14.398 128.398 c 14.398 130.801 18 130.801
 18 128.398 c h
18 128.398 m f*
34 128.398 m 34 126 30.398 126 30.398 128.398 c 30.398 130.801 34 130.801
 34 128.398 c h
34 128.398 m f*
50 128.398 m 50 126 46.398 126 46.398 128.398 c 46.398 130.801 50 130.801
 50 128.398 c h
50 128.398 m f*
0 0 1 rg
66 128.398 m 66 126 62.398 126 62.398 128.398 c 62.398 130.801 66 130.801
 66 128.398 c h
66 128.398 m f*
0 g
0.8 w
80.199 0.398 m 64.199 160.398 l S
Q Q
showpage
%%Trailer
end
%%EOF
