%!PS-Adobe-3.0 EPSF-3.0
%%Creator: cairo 1.14.6 (http://cairographics.org)
%%CreationDate: Thu Aug  9 21:18:19 2018
%%Pages: 1
%%DocumentData: Clean7Bit
%%LanguageLevel: 2
%%BoundingBox: 0 1 133 134
%%EndComments
%%BeginProlog
save
50 dict begin
/q { gsave } bind def
/Q { grestore } bind def
/cm { 6 array astore concat } bind def
/w { setlinewidth } bind def
/J { setlinecap } bind def
/j { setlinejoin } bind def
/M { setmiterlimit } bind def
/d { setdash } bind def
/m { moveto } bind def
/l { lineto } bind def
/c { curveto } bind def
/h { closepath } bind def
/re { exch dup neg 3 1 roll 5 3 roll moveto 0 rlineto
      0 exch rlineto 0 rlineto closepath } bind def
/S { stroke } bind def
/f { fill } bind def
/f* { eofill } bind def
/n { newpath } bind def
/W { clip } bind def
/W* { eoclip } bind def
/BT { } bind def
/ET { } bind def
/pdfmark where { pop globaldict /?pdfmark /exec load put }
    { globaldict begin /?pdfmark /pop load def /pdfmark
    /cleartomark load def end } ifelse
/BDC { mark 3 1 roll /BDC pdfmark } bind def
/EMC { mark /EMC pdfmark } bind def
/cairo_store_point { /cairo_point_y exch def /cairo_point_x exch def } def
/Tj { show currentpoint cairo_store_point } bind def
/TJ {
  {
    dup
    type /stringtype eq
    { show } { -0.001 mul 0 cairo_font_matrix dtransform rmoveto } ifelse
  } forall
  currentpoint cairo_store_point
} bind def
/cairo_selectfont { cairo_font_matrix aload pop pop pop 0 0 6 array astore
    cairo_font exch selectfont cairo_point_x cairo_point_y moveto } bind def
/Tf { pop /cairo_font exch def /cairo_font_matrix where
      { pop cairo_selectfont } if } bind def
/Td { matrix translate cairo_font_matrix matrix concatmatrix dup
      /cairo_font_matrix exch def dup 4 get exch 5 get cairo_store_point
      /cairo_font where { pop cairo_selectfont } if } bind def
/Tm { 2 copy 8 2 roll 6 array astore /cairo_font_matrix exch def
      cairo_store_point /cairo_font where { pop cairo_selectfont } if } bind def
/g { setgray } bind def
/rg { setrgbcolor } bind def
/d1 { setcachedevice } bind def
%%EndProlog
%%BeginSetup
%%EndSetup
%%Page: 1 1
%%BeginPageSetup
%%PageBoundingBox: 0 1 133 134
%%EndPageSetup
q 0 1 133 133 rectclip q
0 g
68.301 67.5 m 68.301 69.898 64.699 69.898 64.699 67.5 c 64.699 65.102 68.301
 65.102 68.301 67.5 c h
68.301 67.5 m f*
4.301 83.5 m 4.301 85.898 0.699 85.898 0.699 83.5 c 0.699 81.102 4.301 
81.102 4.301 83.5 c h
4.301 83.5 m f*
52.301 131.5 m 52.301 133.898 48.699 133.898 48.699 131.5 c 48.699 129.102
 52.301 129.102 52.301 131.5 c h
52.301 131.5 m f*
84.301 131.5 m 84.301 133.898 80.699 133.898 80.699 131.5 c 80.699 129.102
 84.301 129.102 84.301 131.5 c h
84.301 131.5 m f*
132.301 83.5 m 132.301 85.898 128.699 85.898 128.699 83.5 c 128.699 81.102
 132.301 81.102 132.301 83.5 c h
132.301 83.5 m f*
132.301 51.5 m 132.301 53.898 128.699 53.898 128.699 51.5 c 128.699 49.102
 132.301 49.102 132.301 51.5 c h
132.301 51.5 m f*
84.301 3.5 m 84.301 5.898 80.699 5.898 80.699 3.5 c 80.699 1.102 84.301
 1.102 84.301 3.5 c h
84.301 3.5 m f*
52.301 3.5 m 52.301 5.898 48.699 5.898 48.699 3.5 c 48.699 1.102 52.301
 1.102 52.301 3.5 c h
52.301 3.5 m f*
4.301 51.5 m 4.301 53.898 0.699 53.898 0.699 51.5 c 0.699 49.102 4.301 
49.102 4.301 51.5 c h
4.301 51.5 m f*
0.4 w
0 J
1 j
[] 0.0 d
10 M 66.5 67.5 m 2.5 83.5 l 50.5 131.5 l h
66.5 67.5 m S
66.5 67.5 m 82.5 131.5 l 130.5 83.5 l h
66.5 67.5 m S
66.5 67.5 m 130.5 51.5 l 82.5 3.5 l h
66.5 67.5 m S
66.5 67.5 m 50.5 3.5 l 2.5 51.5 l h
66.5 67.5 m S
Q Q
showpage
%%Trailer
end restore
%%EOF
